sim/work/transcript
# //  Questa Sim-64
# //  Version 10.6b linux_x86_64 May 25 2017
# //
# //  Copyright 1991-2017 Mentor Graphics Corporation
# //  All Rights Reserved.
# //
# //  QuestaSim and its associated documentation contain trade
# //  secrets and commercial or financial information that are the property of
# //  Mentor Graphics Corporation and are privileged, confidential,
# //  and exempt from disclosure under the Freedom of Information Act,
# //  5 U.S.C. Section 552. Furthermore, this information
# //  is prohibited from disclosure under the Trade Secrets Act,
# //  18 U.S.C. Section 1905.
# //
# vsim -debugDB top -do "add wave sim:/top/* ; run -all" 
# Start time: 13:27:37 on Feb 01,2023
# ** Warning: (vsim-4308) Enabling visibility using +acc is recommended with debug flow.
# ** Note: (vsim-3812) Design is being optimized...
# ** Note: (vsim-8611) Generating debug db.
# ** Warning: (vopt-4308) Enabling visibility using +acc is recommended with debug flow.
# ** Error: (vopt-13130) Failed to find design unit top.
#         Searched libraries:
#             work
# Optimization failed
# Error loading design
# End time: 13:27:37 on Feb 01,2023, Elapsed time: 0:00:00
# Errors: 1, Warnings: 2
vsim -voptargs=+acc work.adder_1b_tb
# vsim -voptargs="+acc" work.adder_1b_tb 
# Start time: 13:27:40 on Feb 01,2023
# ** Note: (vsim-3812) Design is being optimized...
# Loading work.adder_1b_tb(fast)
# Loading sv_std.std
# Loading work.adder_1a(fast)
# Loading work.adder(fast)
add wave -position insertpoint sim:/adder_1b_tb/dut/*
run -all
# a=0000 b=0000 cin=0 sum=0000 cout=0
# a=0000 b=0000 cin=1 sum=0001 cout=0
# a=0000 b=0001 cin=0 sum=0001 cout=0
# a=0000 b=0001 cin=1 sum=0010 cout=0
# a=0000 b=0010 cin=0 sum=0010 cout=0
# a=0000 b=0010 cin=1 sum=0011 cout=0
# a=0000 b=0011 cin=0 sum=0011 cout=0
# a=0000 b=0011 cin=1 sum=0100 cout=0
# a=0000 b=0100 cin=0 sum=0100 cout=0
# a=0000 b=0100 cin=1 sum=0101 cout=0
# a=0000 b=0101 cin=0 sum=0101 cout=0
# a=0000 b=0101 cin=1 sum=0110 cout=0
# a=0000 b=0110 cin=0 sum=0110 cout=0
# a=0000 b=0110 cin=1 sum=0111 cout=0
# a=0000 b=0111 cin=0 sum=0111 cout=0
# a=0000 b=0111 cin=1 sum=1000 cout=0
# a=0000 b=1000 cin=0 sum=1000 cout=0
# a=0000 b=1000 cin=1 sum=1001 cout=0
# a=0000 b=1001 cin=0 sum=1001 cout=0
# a=0000 b=1001 cin=1 sum=1010 cout=0
# a=0000 b=1010 cin=0 sum=1010 cout=0
# a=0000 b=1010 cin=1 sum=1011 cout=0
# a=0000 b=1011 cin=0 sum=1011 cout=0
# a=0000 b=1011 cin=1 sum=1100 cout=0
# a=0000 b=1100 cin=0 sum=1100 cout=0
# a=0000 b=1100 cin=1 sum=1101 cout=0
# a=0000 b=1101 cin=0 sum=1101 cout=0
# a=0000 b=1101 cin=1 sum=1110 cout=0
# a=0000 b=1110 cin=0 sum=1110 cout=0
# a=0000 b=1110 cin=1 sum=1111 cout=0
# a=0000 b=1111 cin=0 sum=1111 cout=0
# a=0000 b=1111 cin=1 sum=0000 cout=1
# a=0001 b=0000 cin=0 sum=0001 cout=0
# a=0001 b=0000 cin=1 sum=0010 cout=0
# a=0001 b=0001 cin=0 sum=0010 cout=0
# a=0001 b=0001 cin=1 sum=0011 cout=0
# a=0001 b=0010 cin=0 sum=0011 cout=0
# a=0001 b=0010 cin=1 sum=0100 cout=0
# a=0001 b=0011 cin=0 sum=0100 cout=0
# a=0001 b=0011 cin=1 sum=0101 cout=0
# a=0001 b=0100 cin=0 sum=0101 cout=0
# a=0001 b=0100 cin=1 sum=0110 cout=0
# a=0001 b=0101 cin=0 sum=0110 cout=0
# a=0001 b=0101 cin=1 sum=0111 cout=0
# a=0001 b=0110 cin=0 sum=0111 cout=0
# a=0001 b=0110 cin=1 sum=1000 cout=0
# a=0001 b=0111 cin=0 sum=1000 cout=0
# a=0001 b=0111 cin=1 sum=1001 cout=0
# a=0001 b=1000 cin=0 sum=1001 cout=0
# a=0001 b=1000 cin=1 sum=1010 cout=0
# a=0001 b=1001 cin=0 sum=1010 cout=0
# a=0001 b=1001 cin=1 sum=1011 cout=0
# a=0001 b=1010 cin=0 sum=1011 cout=0
# a=0001 b=1010 cin=1 sum=1100 cout=0
# a=0001 b=1011 cin=0 sum=1100 cout=0
# a=0001 b=1011 cin=1 sum=1101 cout=0
# a=0001 b=1100 cin=0 sum=1101 cout=0
# a=0001 b=1100 cin=1 sum=1110 cout=0
# a=0001 b=1101 cin=0 sum=1110 cout=0
# a=0001 b=1101 cin=1 sum=1111 cout=0
# a=0001 b=1110 cin=0 sum=1111 cout=0
# a=0001 b=1110 cin=1 sum=0000 cout=1
# a=0001 b=1111 cin=0 sum=0000 cout=1
# a=0001 b=1111 cin=1 sum=0001 cout=1
# a=0010 b=0000 cin=0 sum=0010 cout=0
# a=0010 b=0000 cin=1 sum=0011 cout=0
# a=0010 b=0001 cin=0 sum=0011 cout=0
# a=0010 b=0001 cin=1 sum=0100 cout=0
# a=0010 b=0010 cin=0 sum=0100 cout=0
# a=0010 b=0010 cin=1 sum=0101 cout=0
# a=0010 b=0011 cin=0 sum=0101 cout=0
# a=0010 b=0011 cin=1 sum=0110 cout=0
# a=0010 b=0100 cin=0 sum=0110 cout=0
# a=0010 b=0100 cin=1 sum=0111 cout=0
# a=0010 b=0101 cin=0 sum=0111 cout=0
# a=0010 b=0101 cin=1 sum=1000 cout=0
# a=0010 b=0110 cin=0 sum=1000 cout=0
# a=0010 b=0110 cin=1 sum=1001 cout=0
# a=0010 b=0111 cin=0 sum=1001 cout=0
# a=0010 b=0111 cin=1 sum=1010 cout=0
# a=0010 b=1000 cin=0 sum=1010 cout=0
# a=0010 b=1000 cin=1 sum=1011 cout=0
# a=0010 b=1001 cin=0 sum=1011 cout=0
# a=0010 b=1001 cin=1 sum=1100 cout=0
# a=0010 b=1010 cin=0 sum=1100 cout=0
# a=0010 b=1010 cin=1 sum=1101 cout=0
# a=0010 b=1011 cin=0 sum=1101 cout=0
# a=0010 b=1011 cin=1 sum=1110 cout=0
# a=0010 b=1100 cin=0 sum=1110 cout=0
# a=0010 b=1100 cin=1 sum=1111 cout=0
# a=0010 b=1101 cin=0 sum=1111 cout=0
# a=0010 b=1101 cin=1 sum=0000 cout=1
# a=0010 b=1110 cin=0 sum=0000 cout=1
# a=0010 b=1110 cin=1 sum=0001 cout=1
# a=0010 b=1111 cin=0 sum=0001 cout=1
# a=0010 b=1111 cin=1 sum=0010 cout=1
# a=0011 b=0000 cin=0 sum=0011 cout=0
# a=0011 b=0000 cin=1 sum=0100 cout=0
# a=0011 b=0001 cin=0 sum=0100 cout=0
# a=0011 b=0001 cin=1 sum=0101 cout=0
# a=0011 b=0010 cin=0 sum=0101 cout=0
# a=0011 b=0010 cin=1 sum=0110 cout=0
# a=0011 b=0011 cin=0 sum=0110 cout=0
# a=0011 b=0011 cin=1 sum=0111 cout=0
# a=0011 b=0100 cin=0 sum=0111 cout=0
# a=0011 b=0100 cin=1 sum=1000 cout=0
# a=0011 b=0101 cin=0 sum=1000 cout=0
# a=0011 b=0101 cin=1 sum=1001 cout=0
# a=0011 b=0110 cin=0 sum=1001 cout=0
# a=0011 b=0110 cin=1 sum=1010 cout=0
# a=0011 b=0111 cin=0 sum=1010 cout=0
# a=0011 b=0111 cin=1 sum=1011 cout=0
# a=0011 b=1000 cin=0 sum=1011 cout=0
# a=0011 b=1000 cin=1 sum=1100 cout=0
# a=0011 b=1001 cin=0 sum=1100 cout=0
# a=0011 b=1001 cin=1 sum=1101 cout=0
# a=0011 b=1010 cin=0 sum=1101 cout=0
# a=0011 b=1010 cin=1 sum=1110 cout=0
# a=0011 b=1011 cin=0 sum=1110 cout=0
# a=0011 b=1011 cin=1 sum=1111 cout=0
# a=0011 b=1100 cin=0 sum=1111 cout=0
# a=0011 b=1100 cin=1 sum=0000 cout=1
# a=0011 b=1101 cin=0 sum=0000 cout=1
# a=0011 b=1101 cin=1 sum=0001 cout=1
# a=0011 b=1110 cin=0 sum=0001 cout=1
# a=0011 b=1110 cin=1 sum=0010 cout=1
# a=0011 b=1111 cin=0 sum=0010 cout=1
# a=0011 b=1111 cin=1 sum=0011 cout=1
# a=0100 b=0000 cin=0 sum=0100 cout=0
# a=0100 b=0000 cin=1 sum=0101 cout=0
# a=0100 b=0001 cin=0 sum=0101 cout=0
# a=0100 b=0001 cin=1 sum=0110 cout=0
# a=0100 b=0010 cin=0 sum=0110 cout=0
# a=0100 b=0010 cin=1 sum=0111 cout=0
# a=0100 b=0011 cin=0 sum=0111 cout=0
# a=0100 b=0011 cin=1 sum=1000 cout=0
# a=0100 b=0100 cin=0 sum=1000 cout=0
# a=0100 b=0100 cin=1 sum=1001 cout=0
# a=0100 b=0101 cin=0 sum=1001 cout=0
# a=0100 b=0101 cin=1 sum=1010 cout=0
# a=0100 b=0110 cin=0 sum=1010 cout=0
# a=0100 b=0110 cin=1 sum=1011 cout=0
# a=0100 b=0111 cin=0 sum=1011 cout=0
# a=0100 b=0111 cin=1 sum=1100 cout=0
# a=0100 b=1000 cin=0 sum=1100 cout=0
# a=0100 b=1000 cin=1 sum=1101 cout=0
# a=0100 b=1001 cin=0 sum=1101 cout=0
# a=0100 b=1001 cin=1 sum=1110 cout=0
# a=0100 b=1010 cin=0 sum=1110 cout=0
# a=0100 b=1010 cin=1 sum=1111 cout=0
# a=0100 b=1011 cin=0 sum=1111 cout=0
# a=0100 b=1011 cin=1 sum=0000 cout=1
# a=0100 b=1100 cin=0 sum=0000 cout=1
# a=0100 b=1100 cin=1 sum=0001 cout=1
# a=0100 b=1101 cin=0 sum=0001 cout=1
# a=0100 b=1101 cin=1 sum=0010 cout=1
# a=0100 b=1110 cin=0 sum=0010 cout=1
# a=0100 b=1110 cin=1 sum=0011 cout=1
# a=0100 b=1111 cin=0 sum=0011 cout=1
# a=0100 b=1111 cin=1 sum=0100 cout=1
# a=0101 b=0000 cin=0 sum=0101 cout=0
# a=0101 b=0000 cin=1 sum=0110 cout=0
# a=0101 b=0001 cin=0 sum=0110 cout=0
# a=0101 b=0001 cin=1 sum=0111 cout=0
# a=0101 b=0010 cin=0 sum=0111 cout=0
# a=0101 b=0010 cin=1 sum=1000 cout=0
# a=0101 b=0011 cin=0 sum=1000 cout=0
# a=0101 b=0011 cin=1 sum=1001 cout=0
# a=0101 b=0100 cin=0 sum=1001 cout=0
# a=0101 b=0100 cin=1 sum=1010 cout=0
# a=0101 b=0101 cin=0 sum=1010 cout=0
# a=0101 b=0101 cin=1 sum=1011 cout=0
# a=0101 b=0110 cin=0 sum=1011 cout=0
# a=0101 b=0110 cin=1 sum=1100 cout=0
# a=0101 b=0111 cin=0 sum=1100 cout=0
# a=0101 b=0111 cin=1 sum=1101 cout=0
# a=0101 b=1000 cin=0 sum=1101 cout=0
# a=0101 b=1000 cin=1 sum=1110 cout=0
# a=0101 b=1001 cin=0 sum=1110 cout=0
# a=0101 b=1001 cin=1 sum=1111 cout=0
# a=0101 b=1010 cin=0 sum=1111 cout=0
# a=0101 b=1010 cin=1 sum=0000 cout=1
# a=0101 b=1011 cin=0 sum=0000 cout=1
# a=0101 b=1011 cin=1 sum=0001 cout=1
# a=0101 b=1100 cin=0 sum=0001 cout=1
# a=0101 b=1100 cin=1 sum=0010 cout=1
# a=0101 b=1101 cin=0 sum=0010 cout=1
# a=0101 b=1101 cin=1 sum=0011 cout=1
# a=0101 b=1110 cin=0 sum=0011 cout=1
# a=0101 b=1110 cin=1 sum=0100 cout=1
# a=0101 b=1111 cin=0 sum=0100 cout=1
# a=0101 b=1111 cin=1 sum=0101 cout=1
# a=0110 b=0000 cin=0 sum=0110 cout=0
# a=0110 b=0000 cin=1 sum=0111 cout=0
# a=0110 b=0001 cin=0 sum=0111 cout=0
# a=0110 b=0001 cin=1 sum=1000 cout=0
# a=0110 b=0010 cin=0 sum=1000 cout=0
# a=0110 b=0010 cin=1 sum=1001 cout=0
# a=0110 b=0011 cin=0 sum=1001 cout=0
# a=0110 b=0011 cin=1 sum=1010 cout=0
# a=0110 b=0100 cin=0 sum=1010 cout=0
# a=0110 b=0100 cin=1 sum=1011 cout=0
# a=0110 b=0101 cin=0 sum=1011 cout=0
# a=0110 b=0101 cin=1 sum=1100 cout=0
# a=0110 b=0110 cin=0 sum=1100 cout=0
# a=0110 b=0110 cin=1 sum=1101 cout=0
# a=0110 b=0111 cin=0 sum=1101 cout=0
# a=0110 b=0111 cin=1 sum=1110 cout=0
# a=0110 b=1000 cin=0 sum=1110 cout=0
# a=0110 b=1000 cin=1 sum=1111 cout=0
# a=0110 b=1001 cin=0 sum=1111 cout=0
# a=0110 b=1001 cin=1 sum=0000 cout=1
# a=0110 b=1010 cin=0 sum=0000 cout=1
# a=0110 b=1010 cin=1 sum=0001 cout=1
# a=0110 b=1011 cin=0 sum=0001 cout=1
# a=0110 b=1011 cin=1 sum=0010 cout=1
# a=0110 b=1100 cin=0 sum=0010 cout=1
# a=0110 b=1100 cin=1 sum=0011 cout=1
# a=0110 b=1101 cin=0 sum=0011 cout=1
# a=0110 b=1101 cin=1 sum=0100 cout=1
# a=0110 b=1110 cin=0 sum=0100 cout=1
# a=0110 b=1110 cin=1 sum=0101 cout=1
# a=0110 b=1111 cin=0 sum=0101 cout=1
# a=0110 b=1111 cin=1 sum=0110 cout=1
# a=0111 b=0000 cin=0 sum=0111 cout=0
# a=0111 b=0000 cin=1 sum=1000 cout=0
# a=0111 b=0001 cin=0 sum=1000 cout=0
# a=0111 b=0001 cin=1 sum=1001 cout=0
# a=0111 b=0010 cin=0 sum=1001 cout=0
# a=0111 b=0010 cin=1 sum=1010 cout=0
# a=0111 b=0011 cin=0 sum=1010 cout=0
# a=0111 b=0011 cin=1 sum=1011 cout=0
# a=0111 b=0100 cin=0 sum=1011 cout=0
# a=0111 b=0100 cin=1 sum=1100 cout=0
# a=0111 b=0101 cin=0 sum=1100 cout=0
# a=0111 b=0101 cin=1 sum=1101 cout=0
# a=0111 b=0110 cin=0 sum=1101 cout=0
# a=0111 b=0110 cin=1 sum=1110 cout=0
# a=0111 b=0111 cin=0 sum=1110 cout=0
# a=0111 b=0111 cin=1 sum=1111 cout=0
# a=0111 b=1000 cin=0 sum=1111 cout=0
# a=0111 b=1000 cin=1 sum=0000 cout=1
# a=0111 b=1001 cin=0 sum=0000 cout=1
# a=0111 b=1001 cin=1 sum=0001 cout=1
# a=0111 b=1010 cin=0 sum=0001 cout=1
# a=0111 b=1010 cin=1 sum=0010 cout=1
# a=0111 b=1011 cin=0 sum=0010 cout=1
# a=0111 b=1011 cin=1 sum=0011 cout=1
# a=0111 b=1100 cin=0 sum=0011 cout=1
# a=0111 b=1100 cin=1 sum=0100 cout=1
# a=0111 b=1101 cin=0 sum=0100 cout=1
# a=0111 b=1101 cin=1 sum=0101 cout=1
# a=0111 b=1110 cin=0 sum=0101 cout=1
# a=0111 b=1110 cin=1 sum=0110 cout=1
# a=0111 b=1111 cin=0 sum=0110 cout=1
# a=0111 b=1111 cin=1 sum=0111 cout=1
# a=1000 b=0000 cin=0 sum=1000 cout=0
# a=1000 b=0000 cin=1 sum=1001 cout=0
# a=1000 b=0001 cin=0 sum=1001 cout=0
# a=1000 b=0001 cin=1 sum=1010 cout=0
# a=1000 b=0010 cin=0 sum=1010 cout=0
# a=1000 b=0010 cin=1 sum=1011 cout=0
# a=1000 b=0011 cin=0 sum=1011 cout=0
# a=1000 b=0011 cin=1 sum=1100 cout=0
# a=1000 b=0100 cin=0 sum=1100 cout=0
# a=1000 b=0100 cin=1 sum=1101 cout=0
# a=1000 b=0101 cin=0 sum=1101 cout=0
# a=1000 b=0101 cin=1 sum=1110 cout=0
# a=1000 b=0110 cin=0 sum=1110 cout=0
# a=1000 b=0110 cin=1 sum=1111 cout=0
# a=1000 b=0111 cin=0 sum=1111 cout=0
# a=1000 b=0111 cin=1 sum=0000 cout=1
# a=1000 b=1000 cin=0 sum=0000 cout=1
# a=1000 b=1000 cin=1 sum=0001 cout=1
# a=1000 b=1001 cin=0 sum=0001 cout=1
# a=1000 b=1001 cin=1 sum=0010 cout=1
# a=1000 b=1010 cin=0 sum=0010 cout=1
# a=1000 b=1010 cin=1 sum=0011 cout=1
# a=1000 b=1011 cin=0 sum=0011 cout=1
# a=1000 b=1011 cin=1 sum=0100 cout=1
# a=1000 b=1100 cin=0 sum=0100 cout=1
# a=1000 b=1100 cin=1 sum=0101 cout=1
# a=1000 b=1101 cin=0 sum=0101 cout=1
# a=1000 b=1101 cin=1 sum=0110 cout=1
# a=1000 b=1110 cin=0 sum=0110 cout=1
# a=1000 b=1110 cin=1 sum=0111 cout=1
# a=1000 b=1111 cin=0 sum=0111 cout=1
# a=1000 b=1111 cin=1 sum=1000 cout=1
# a=1001 b=0000 cin=0 sum=1001 cout=0
# a=1001 b=0000 cin=1 sum=1010 cout=0
# a=1001 b=0001 cin=0 sum=1010 cout=0
# a=1001 b=0001 cin=1 sum=1011 cout=0
# a=1001 b=0010 cin=0 sum=1011 cout=0
# a=1001 b=0010 cin=1 sum=1100 cout=0
# a=1001 b=0011 cin=0 sum=1100 cout=0
# a=1001 b=0011 cin=1 sum=1101 cout=0
# a=1001 b=0100 cin=0 sum=1101 cout=0
# a=1001 b=0100 cin=1 sum=1110 cout=0
# a=1001 b=0101 cin=0 sum=1110 cout=0
# a=1001 b=0101 cin=1 sum=1111 cout=0
# a=1001 b=0110 cin=0 sum=1111 cout=0
# a=1001 b=0110 cin=1 sum=0000 cout=1
# a=1001 b=0111 cin=0 sum=0000 cout=1
# a=1001 b=0111 cin=1 sum=0001 cout=1
# a=1001 b=1000 cin=0 sum=0001 cout=1
# a=1001 b=1000 cin=1 sum=0010 cout=1
# a=1001 b=1001 cin=0 sum=0010 cout=1
# a=1001 b=1001 cin=1 sum=0011 cout=1
# a=1001 b=1010 cin=0 sum=0011 cout=1
# a=1001 b=1010 cin=1 sum=0100 cout=1
# a=1001 b=1011 cin=0 sum=0100 cout=1
# a=1001 b=1011 cin=1 sum=0101 cout=1
# a=1001 b=1100 cin=0 sum=0101 cout=1
# a=1001 b=1100 cin=1 sum=0110 cout=1
# a=1001 b=1101 cin=0 sum=0110 cout=1
# a=1001 b=1101 cin=1 sum=0111 cout=1
# a=1001 b=1110 cin=0 sum=0111 cout=1
# a=1001 b=1110 cin=1 sum=1000 cout=1
# a=1001 b=1111 cin=0 sum=1000 cout=1
# a=1001 b=1111 cin=1 sum=1001 cout=1
# a=1010 b=0000 cin=0 sum=1010 cout=0
# a=1010 b=0000 cin=1 sum=1011 cout=0
# a=1010 b=0001 cin=0 sum=1011 cout=0
# a=1010 b=0001 cin=1 sum=1100 cout=0
# a=1010 b=0010 cin=0 sum=1100 cout=0
# a=1010 b=0010 cin=1 sum=1101 cout=0
# a=1010 b=0011 cin=0 sum=1101 cout=0
# a=1010 b=0011 cin=1 sum=1110 cout=0
# a=1010 b=0100 cin=0 sum=1110 cout=0
# a=1010 b=0100 cin=1 sum=1111 cout=0
# a=1010 b=0101 cin=0 sum=1111 cout=0
# a=1010 b=0101 cin=1 sum=0000 cout=1
# a=1010 b=0110 cin=0 sum=0000 cout=1
# a=1010 b=0110 cin=1 sum=0001 cout=1
# a=1010 b=0111 cin=0 sum=0001 cout=1
# a=1010 b=0111 cin=1 sum=0010 cout=1
# a=1010 b=1000 cin=0 sum=0010 cout=1
# a=1010 b=1000 cin=1 sum=0011 cout=1
# a=1010 b=1001 cin=0 sum=0011 cout=1
# a=1010 b=1001 cin=1 sum=0100 cout=1
# a=1010 b=1010 cin=0 sum=0100 cout=1
# a=1010 b=1010 cin=1 sum=0101 cout=1
# a=1010 b=1011 cin=0 sum=0101 cout=1
# a=1010 b=1011 cin=1 sum=0110 cout=1
# a=1010 b=1100 cin=0 sum=0110 cout=1
# a=1010 b=1100 cin=1 sum=0111 cout=1
# a=1010 b=1101 cin=0 sum=0111 cout=1
# a=1010 b=1101 cin=1 sum=1000 cout=1
# a=1010 b=1110 cin=0 sum=1000 cout=1
# a=1010 b=1110 cin=1 sum=1001 cout=1
# a=1010 b=1111 cin=0 sum=1001 cout=1
# a=1010 b=1111 cin=1 sum=1010 cout=1
# a=1011 b=0000 cin=0 sum=1011 cout=0
# a=1011 b=0000 cin=1 sum=1100 cout=0
# a=1011 b=0001 cin=0 sum=1100 cout=0
# a=1011 b=0001 cin=1 sum=1101 cout=0
# a=1011 b=0010 cin=0 sum=1101 cout=0
# a=1011 b=0010 cin=1 sum=1110 cout=0
# a=1011 b=0011 cin=0 sum=1110 cout=0
# a=1011 b=0011 cin=1 sum=1111 cout=0
# a=1011 b=0100 cin=0 sum=1111 cout=0
# a=1011 b=0100 cin=1 sum=0000 cout=1
# a=1011 b=0101 cin=0 sum=0000 cout=1
# a=1011 b=0101 cin=1 sum=0001 cout=1
# a=1011 b=0110 cin=0 sum=0001 cout=1
# a=1011 b=0110 cin=1 sum=0010 cout=1
# a=1011 b=0111 cin=0 sum=0010 cout=1
# a=1011 b=0111 cin=1 sum=0011 cout=1
# a=1011 b=1000 cin=0 sum=0011 cout=1
# a=1011 b=1000 cin=1 sum=0100 cout=1
# a=1011 b=1001 cin=0 sum=0100 cout=1
# a=1011 b=1001 cin=1 sum=0101 cout=1
# a=1011 b=1010 cin=0 sum=0101 cout=1
# a=1011 b=1010 cin=1 sum=0110 cout=1
# a=1011 b=1011 cin=0 sum=0110 cout=1
# a=1011 b=1011 cin=1 sum=0111 cout=1
# a=1011 b=1100 cin=0 sum=0111 cout=1
# a=1011 b=1100 cin=1 sum=1000 cout=1
# a=1011 b=1101 cin=0 sum=1000 cout=1
# a=1011 b=1101 cin=1 sum=1001 cout=1
# a=1011 b=1110 cin=0 sum=1001 cout=1
# a=1011 b=1110 cin=1 sum=1010 cout=1
# a=1011 b=1111 cin=0 sum=1010 cout=1
# a=1011 b=1111 cin=1 sum=1011 cout=1
# a=1100 b=0000 cin=0 sum=1100 cout=0
# a=1100 b=0000 cin=1 sum=1101 cout=0
# a=1100 b=0001 cin=0 sum=1101 cout=0
# a=1100 b=0001 cin=1 sum=1110 cout=0
# a=1100 b=0010 cin=0 sum=1110 cout=0
# a=1100 b=0010 cin=1 sum=1111 cout=0
# a=1100 b=0011 cin=0 sum=1111 cout=0
# a=1100 b=0011 cin=1 sum=0000 cout=1
# a=1100 b=0100 cin=0 sum=0000 cout=1
# a=1100 b=0100 cin=1 sum=0001 cout=1
# a=1100 b=0101 cin=0 sum=0001 cout=1
# a=1100 b=0101 cin=1 sum=0010 cout=1
# a=1100 b=0110 cin=0 sum=0010 cout=1
# a=1100 b=0110 cin=1 sum=0011 cout=1
# a=1100 b=0111 cin=0 sum=0011 cout=1
# a=1100 b=0111 cin=1 sum=0100 cout=1
# a=1100 b=1000 cin=0 sum=0100 cout=1
# a=1100 b=1000 cin=1 sum=0101 cout=1
# a=1100 b=1001 cin=0 sum=0101 cout=1
# a=1100 b=1001 cin=1 sum=0110 cout=1
# a=1100 b=1010 cin=0 sum=0110 cout=1
# a=1100 b=1010 cin=1 sum=0111 cout=1
# a=1100 b=1011 cin=0 sum=0111 cout=1
# a=1100 b=1011 cin=1 sum=1000 cout=1
# a=1100 b=1100 cin=0 sum=1000 cout=1
# a=1100 b=1100 cin=1 sum=1001 cout=1
# a=1100 b=1101 cin=0 sum=1001 cout=1
# a=1100 b=1101 cin=1 sum=1010 cout=1
# a=1100 b=1110 cin=0 sum=1010 cout=1
# a=1100 b=1110 cin=1 sum=1011 cout=1
# a=1100 b=1111 cin=0 sum=1011 cout=1
# a=1100 b=1111 cin=1 sum=1100 cout=1
# a=1101 b=0000 cin=0 sum=1101 cout=0
# a=1101 b=0000 cin=1 sum=1110 cout=0
# a=1101 b=0001 cin=0 sum=1110 cout=0
# a=1101 b=0001 cin=1 sum=1111 cout=0
# a=1101 b=0010 cin=0 sum=1111 cout=0
# a=1101 b=0010 cin=1 sum=0000 cout=1
# a=1101 b=0011 cin=0 sum=0000 cout=1
# a=1101 b=0011 cin=1 sum=0001 cout=1
# a=1101 b=0100 cin=0 sum=0001 cout=1
# a=1101 b=0100 cin=1 sum=0010 cout=1
# a=1101 b=0101 cin=0 sum=0010 cout=1
# a=1101 b=0101 cin=1 sum=0011 cout=1
# a=1101 b=0110 cin=0 sum=0011 cout=1
# a=1101 b=0110 cin=1 sum=0100 cout=1
# a=1101 b=0111 cin=0 sum=0100 cout=1
# a=1101 b=0111 cin=1 sum=0101 cout=1
# a=1101 b=1000 cin=0 sum=0101 cout=1
# a=1101 b=1000 cin=1 sum=0110 cout=1
# a=1101 b=1001 cin=0 sum=0110 cout=1
# a=1101 b=1001 cin=1 sum=0111 cout=1
# a=1101 b=1010 cin=0 sum=0111 cout=1
# a=1101 b=1010 cin=1 sum=1000 cout=1
# a=1101 b=1011 cin=0 sum=1000 cout=1
# a=1101 b=1011 cin=1 sum=1001 cout=1
# a=1101 b=1100 cin=0 sum=1001 cout=1
# a=1101 b=1100 cin=1 sum=1010 cout=1
# a=1101 b=1101 cin=0 sum=1010 cout=1
# a=1101 b=1101 cin=1 sum=1011 cout=1
# a=1101 b=1110 cin=0 sum=1011 cout=1
# a=1101 b=1110 cin=1 sum=1100 cout=1
# a=1101 b=1111 cin=0 sum=1100 cout=1
# a=1101 b=1111 cin=1 sum=1101 cout=1
# a=1110 b=0000 cin=0 sum=1110 cout=0
# a=1110 b=0000 cin=1 sum=1111 cout=0
# a=1110 b=0001 cin=0 sum=1111 cout=0
# a=1110 b=0001 cin=1 sum=0000 cout=1
# a=1110 b=0010 cin=0 sum=0000 cout=1
# a=1110 b=0010 cin=1 sum=0001 cout=1
# a=1110 b=0011 cin=0 sum=0001 cout=1
# a=1110 b=0011 cin=1 sum=0010 cout=1
# a=1110 b=0100 cin=0 sum=0010 cout=1
# a=1110 b=0100 cin=1 sum=0011 cout=1
# a=1110 b=0101 cin=0 sum=0011 cout=1
# a=1110 b=0101 cin=1 sum=0100 cout=1
# a=1110 b=0110 cin=0 sum=0100 cout=1
# a=1110 b=0110 cin=1 sum=0101 cout=1
# a=1110 b=0111 cin=0 sum=0101 cout=1
# a=1110 b=0111 cin=1 sum=0110 cout=1
# a=1110 b=1000 cin=0 sum=0110 cout=1
# a=1110 b=1000 cin=1 sum=0111 cout=1
# a=1110 b=1001 cin=0 sum=0111 cout=1
# a=1110 b=1001 cin=1 sum=1000 cout=1
# a=1110 b=1010 cin=0 sum=1000 cout=1
# a=1110 b=1010 cin=1 sum=1001 cout=1
# a=1110 b=1011 cin=0 sum=1001 cout=1
# a=1110 b=1011 cin=1 sum=1010 cout=1
# a=1110 b=1100 cin=0 sum=1010 cout=1
# a=1110 b=1100 cin=1 sum=1011 cout=1
# a=1110 b=1101 cin=0 sum=1011 cout=1
# a=1110 b=1101 cin=1 sum=1100 cout=1
# a=1110 b=1110 cin=0 sum=1100 cout=1
# a=1110 b=1110 cin=1 sum=1101 cout=1
# a=1110 b=1111 cin=0 sum=1101 cout=1
# a=1110 b=1111 cin=1 sum=1110 cout=1
# a=1111 b=0000 cin=0 sum=1111 cout=0
# a=1111 b=0000 cin=1 sum=0000 cout=1
# a=1111 b=0001 cin=0 sum=0000 cout=1
# a=1111 b=0001 cin=1 sum=0001 cout=1
# a=1111 b=0010 cin=0 sum=0001 cout=1
# a=1111 b=0010 cin=1 sum=0010 cout=1
# a=1111 b=0011 cin=0 sum=0010 cout=1
# a=1111 b=0011 cin=1 sum=0011 cout=1
# a=1111 b=0100 cin=0 sum=0011 cout=1
# a=1111 b=0100 cin=1 sum=0100 cout=1
# a=1111 b=0101 cin=0 sum=0100 cout=1
# a=1111 b=0101 cin=1 sum=0101 cout=1
# a=1111 b=0110 cin=0 sum=0101 cout=1
# a=1111 b=0110 cin=1 sum=0110 cout=1
# a=1111 b=0111 cin=0 sum=0110 cout=1
# a=1111 b=0111 cin=1 sum=0111 cout=1
# a=1111 b=1000 cin=0 sum=0111 cout=1
# a=1111 b=1000 cin=1 sum=1000 cout=1
# a=1111 b=1001 cin=0 sum=1000 cout=1
# a=1111 b=1001 cin=1 sum=1001 cout=1
# a=1111 b=1010 cin=0 sum=1001 cout=1
# a=1111 b=1010 cin=1 sum=1010 cout=1
# a=1111 b=1011 cin=0 sum=1010 cout=1
# a=1111 b=1011 cin=1 sum=1011 cout=1
# a=1111 b=1100 cin=0 sum=1011 cout=1
# a=1111 b=1100 cin=1 sum=1100 cout=1
# a=1111 b=1101 cin=0 sum=1100 cout=1
# a=1111 b=1101 cin=1 sum=1101 cout=1
# a=1111 b=1110 cin=0 sum=1101 cout=1
# a=1111 b=1110 cin=1 sum=1110 cout=1
# a=1111 b=1111 cin=0 sum=1110 cout=1
# a=1111 b=1111 cin=1 sum=1111 cout=1
# ** Note: $finish    : ../rtl/adder_1b_tb.v(28)
#    Time: 512 ns  Iteration: 0  Instance: /adder_1b_tb
# 1
# Break in Module adder_1b_tb at ../rtl/adder_1b_tb.v line 28
quit -sim
# End time: 13:29:18 on Feb 01,2023, Elapsed time: 0:01:38
# Errors: 0, Warnings: 0
vsim -voptargs=+acc work.adder_1c_tb
# vsim -voptargs="+acc" work.adder_1c_tb 
# Start time: 13:29:21 on Feb 01,2023
# ** Note: (vsim-3812) Design is being optimized...
# Loading work.adder_1c_tb(fast)
# Loading sv_std.std
# Loading work.adder_1a(fast)
# Loading work.adder(fast)
add wave -position insertpoint sim:/adder_1c_tb/dut/*
run -continue
run -all
# a=0000 b=0000 cin=0 sum=0000 cout=0
# a=0000 b=0000 cin=1 sum=0001 cout=0
# a=0000 b=0001 cin=0 sum=0001 cout=0
# a=0000 b=0001 cin=1 sum=0010 cout=0
